{
  "files": {
    "main.css": "/game/static/css/main.8c8b27cf.chunk.css",
    "main.js": "/game/static/js/main.78f40adb.chunk.js",
    "main.js.map": "/game/static/js/main.78f40adb.chunk.js.map",
    "runtime-main.js": "/game/static/js/runtime-main.4c4e8e33.js",
    "runtime-main.js.map": "/game/static/js/runtime-main.4c4e8e33.js.map",
    "static/js/2.cc1400d0.chunk.js": "/game/static/js/2.cc1400d0.chunk.js",
    "static/js/2.cc1400d0.chunk.js.map": "/game/static/js/2.cc1400d0.chunk.js.map",
    "static/js/3.8482e6a9.chunk.js": "/game/static/js/3.8482e6a9.chunk.js",
    "static/js/3.8482e6a9.chunk.js.map": "/game/static/js/3.8482e6a9.chunk.js.map",
    "index.html": "/game/index.html",
    "static/css/main.8c8b27cf.chunk.css.map": "/game/static/css/main.8c8b27cf.chunk.css.map",
    "static/js/2.cc1400d0.chunk.js.LICENSE.txt": "/game/static/js/2.cc1400d0.chunk.js.LICENSE.txt",
    "static/media/logo.6ce24c58.svg": "/game/static/media/logo.6ce24c58.svg"
  },
  "entrypoints": [
    "static/js/runtime-main.4c4e8e33.js",
    "static/js/2.cc1400d0.chunk.js",
    "static/css/main.8c8b27cf.chunk.css",
    "static/js/main.78f40adb.chunk.js"
  ]
}